code.R
…
n <- 500

columns <- names(dataset_clean)[which(missing_values$num.missing >= dim(dataset_clean)[1]-n)]

dataset_model <- dataset_clean %>%
  select(all_of(columns))

# remove variables with variance equal to zero 

dataset_model_num <- dataset_model %>%
  select_if(is.numeric)

dataset_model_num[, -which(apply(dataset_model_num, 2, var, na.rm = TRUE) == 0)]

## # A tibble: 5,644 x 43
##    `Patient age qu Hematocrit Hemoglobin Platelets `Mean platelet 
##               <dbl>      <dbl>      <dbl>     <dbl>            <dbl>
##  1               13     NA        NA         NA              NA     
##  2               17      0.237    -0.0223    -0.517           0.0107
##  3                8     NA        NA         NA              NA     
##  4                5     NA        NA         NA              NA     
##  5               15     NA        NA         NA              NA     
##  6                9     NA        NA         NA              NA     
##  7               13     NA        NA         NA              NA     
##  8               16     NA        NA         NA              NA     
##  9                1     -1.57     -0.774      1.43           -1.67  
## 10               17     NA        NA         NA              NA     
## #  with 5,634 more rows, and 38 more variables: `Red blood Cells` <dbl>,
## #   Lymphocytes <dbl>, `Mean corpuscular hemoglobin
## #   concentration (MCHC)` <dbl>, Leukocytes <dbl>, Basophils <dbl>, `Mean
## #   corpuscular hemoglobin (MCH)` <dbl>, Eosinophils <dbl>, `Mean corpuscular
## #   volume (MCV)` <dbl>, Monocytes <dbl>, `Red blood cell distribution width
## #   (RDW)` <dbl>, `Serum Glucose` <dbl>, Neutrophils <dbl>, Urea <dbl>,
## #   `Proteina C reativa mg/dL` <dbl>, Creatinine <dbl>, Potassium <dbl>,
## #   Sodium <dbl>, `Alanine transaminase` <dbl>, `Aspartate transaminase` <dbl>,
## #   `Gamma-glutamyltransferase ` <dbl>, `Total Bilirubin` <dbl>, `Direct
…
